<svg xmlns="http://www.w3.org/2000/svg" xmlns:xlink="http://www.w3.org/1999/xlink" width="57.698" height="57.699" viewBox="0 0 57.698 57.699">
  <defs>
    <clipPath id="clip-path">
      <path id="Clip_2" data-name="Clip 2" d="M0,0H57.7V57.7H0Z" transform="translate(0 0.301)" fill="none"/>
    </clipPath>
  </defs>
  <g id="Group" transform="translate(0 -0.301)">
    <g id="Group_3" data-name="Group 3">
      <path id="Clip_2-2" data-name="Clip 2" d="M0,0H57.7V57.7H0Z" transform="translate(0 0.301)" fill="none"/>
      <g id="Group_3-2" data-name="Group 3" clip-path="url(#clip-path)">
        <path id="Fill_1" data-name="Fill 1" d="M28.849,57.7A28.85,28.85,0,1,1,57.7,28.85,28.882,28.882,0,0,1,28.849,57.7ZM6.265,43.972a27.176,27.176,0,0,0,45.761-.923,21,21,0,0,0-9.683-2.318c-4.434,0-8.688,1.232-13.192,2.537a1.122,1.122,0,0,1-.587.178h-.022c-4.6,1.328-8.753,2.428-13.1,2.428A22.471,22.471,0,0,1,6.265,43.972Zm-.908-2.179a.769.769,0,0,1,.353.084,20.993,20.993,0,0,0,9.738,2.348A42.315,42.315,0,0,0,26.94,42.177a7.191,7.191,0,0,1-.439-.852c-.36-.84-.687-1.669-.969-2.465-.137-.383-.271-.784-.422-1.262-1.418-1.266-8.374-7.943-5.989-15.053a11.5,11.5,0,0,1,5.927-6.733,16.088,16.088,0,0,1,5.37-1.608,67.5,67.5,0,0,0,5.3-6.827.83.83,0,0,1,1.518.233c.9,3.726,3.373,16.34-2.39,22.215-.483.493-1,1.009-1.627,1.624-.325.317-.672.637-1.029.963a10.9,10.9,0,0,0-3.16,3.873,4.04,4.04,0,0,0-.076,2.141c.076.389.163.787.247,1.172l.016.074.085.383a3.46,3.46,0,0,0,.178.5,5.339,5.339,0,0,1,.274.816c4.187-1.2,8.3-2.285,12.6-2.285A22.6,22.6,0,0,1,52.84,41.6l.005,0,.005,0a27.189,27.189,0,1,0-47.861.268A.882.882,0,0,1,5.357,41.793ZM36.023,9.86c-1.349,1.825-3.617,4.6-6.739,8.251-.282.33-.566.7-.868,1.126a24.612,24.612,0,0,0-2.038,4.308,1,1,0,0,1-.053.123c-.089.168-.176.351-.281.595a20.056,20.056,0,0,0-.33,8.889c.128.739.3,1.51.52,2.359.052.16.088.261.092.269l.016.052.319,1.089a.411.411,0,0,1,.013.091c0,.014,0,.029,0,.043.142.45.279.858.418,1.246.093.262.194.536.309.839l-.012-.058v-.007c-.023-.111-.045-.222-.067-.334a5.623,5.623,0,0,1,.142-3.012c.654-1.843,2.22-3.277,3.6-4.541.364-.332.689-.631.989-.925.623-.61,1.132-1.119,1.6-1.6,1.944-1.981,3.014-5.156,3.181-9.439a42.463,42.463,0,0,0-.818-9.363Zm-7.586,6.412h0a12.81,12.81,0,0,0-4.263,2.022,9.689,9.689,0,0,0-3.481,4.777,8.848,8.848,0,0,0,.378,6.214A18.2,18.2,0,0,0,24.143,34.2a22.82,22.82,0,0,1-.637-4.817,13.946,13.946,0,0,1,.963-5.668,17.8,17.8,0,0,1,2.523-5.341,20.009,20.009,0,0,1,1.444-2.1Z" transform="translate(0 0.301)" fill="#fefefe"/>
      </g>
    </g>
    <g id="Group_6" data-name="Group 6">
      <path id="Clip_5-2" data-name="Clip 5" d="M0,0H57.7V57.7H0Z" transform="translate(0 0.301)" fill="none"/>
      <g id="Group_6-2" data-name="Group 6" clip-path="url(#clip-path)">
        <path id="Fill_4" data-name="Fill 4" d="M28.849,57.7A28.85,28.85,0,1,1,57.7,28.85,28.882,28.882,0,0,1,28.849,57.7ZM6.265,43.972a27.176,27.176,0,0,0,45.761-.923,21,21,0,0,0-9.683-2.318c-4.434,0-8.688,1.232-13.192,2.537a1.122,1.122,0,0,1-.587.178h-.022c-4.6,1.328-8.753,2.428-13.1,2.428A22.471,22.471,0,0,1,6.265,43.972Zm-.908-2.179a.769.769,0,0,1,.353.084,20.993,20.993,0,0,0,9.738,2.348A42.315,42.315,0,0,0,26.94,42.177a7.191,7.191,0,0,1-.439-.852c-.36-.84-.687-1.669-.969-2.465-.137-.383-.271-.784-.422-1.262-1.418-1.266-8.374-7.943-5.989-15.053a11.5,11.5,0,0,1,5.927-6.733,16.088,16.088,0,0,1,5.37-1.608,67.5,67.5,0,0,0,5.3-6.827.83.83,0,0,1,1.518.233c.9,3.726,3.373,16.34-2.39,22.215-.483.493-1,1.009-1.627,1.624-.325.317-.672.637-1.029.963a10.9,10.9,0,0,0-3.16,3.873,4.04,4.04,0,0,0-.076,2.141c.076.389.163.787.247,1.172l.016.074.085.383a3.46,3.46,0,0,0,.178.5,5.339,5.339,0,0,1,.274.816c4.187-1.2,8.3-2.285,12.6-2.285A22.6,22.6,0,0,1,52.84,41.6l.005,0,.005,0a27.189,27.189,0,1,0-47.861.268A.882.882,0,0,1,5.357,41.793ZM36.023,9.86c-1.349,1.825-3.617,4.6-6.739,8.251-.282.33-.566.7-.868,1.126a24.612,24.612,0,0,0-2.038,4.308,1,1,0,0,1-.053.123c-.089.168-.176.351-.281.595a20.056,20.056,0,0,0-.33,8.889c.128.739.3,1.51.52,2.359.052.16.088.261.092.269l.016.052.319,1.089a.411.411,0,0,1,.013.091c0,.014,0,.029,0,.043.142.45.279.858.418,1.246.093.262.194.536.309.839l-.012-.058v-.007c-.023-.111-.045-.222-.067-.334a5.623,5.623,0,0,1,.142-3.012c.654-1.843,2.22-3.277,3.6-4.541.364-.332.689-.631.989-.925.623-.61,1.132-1.119,1.6-1.6,1.944-1.981,3.014-5.156,3.181-9.439a42.463,42.463,0,0,0-.818-9.363Zm-7.586,6.412h0a12.81,12.81,0,0,0-4.263,2.022,9.689,9.689,0,0,0-3.481,4.777,8.848,8.848,0,0,0,.378,6.214A18.2,18.2,0,0,0,24.143,34.2a22.82,22.82,0,0,1-.637-4.817,13.946,13.946,0,0,1,.963-5.668,17.8,17.8,0,0,1,2.523-5.341,20.009,20.009,0,0,1,1.444-2.1Z" transform="translate(0 0.301)" fill="#fefefe"/>
      </g>
    </g>
  </g>
</svg>
